<?xml version="1.0" encoding="UTF-8" standalone="no"?>
<!DOCTYPE log SYSTEM "logger.dtd">
<log>
<record>
  <date>2023-01-01T02:03:56.658243594Z</date>
  <millis>1672538636658</millis>
  <nanos>243594</nanos>
  <sequence>0</sequence>
  <logger>view.App</logger>
  <level>INFO</level>
  <class>view.App</class>
  <method>main</method>
  <thread>1</thread>
  <message>initialization of different objects</message>
</record>
</log>
